tstamp_us	RNTI	IMSI	pos_x	pos_y	pos_z	vel_x	vel_y	vel_z
0	0	1	569.726	-30.6119	1.70697	0	0	0
0	0	2	547.063	-22.6034	2.83615	0	0	0
0	0	3	631.159	-36.5983	1.30674	0	0	0
0	0	4	538.011	-67.0046	0.139193	0	0	0
0	0	5	354.839	-33.8113	1.5	2.83224	-1.65099	0
0	0	6	639.573	6.52422	1.5	1.91582	-3.47341	0
0	0	7	-118.232	519.751	1.5	0.180397	-2.4573	0
0	0	8	142.571	15.9176	1.5	1.66765	1.49898	0
0	0	9	372.61	143.556	1.5	-5.42935	-2.97525	0
0	0	10	196.072	495.988	1.5	-3.99861	-1.35499	0
0	0	11	-190.523	-76.449	1.5	0.773428	0.788619	0
0	0	12	49.0083	-143.662	1.5	-12.2941	-5.51686	0
0	0	13	-20.8335	-17.7547	1.5	1.50245	-0.548435	0
1000000	1	1	569.726	-30.6119	1.70697	0	0	0
1000000	1	2	547.063	-22.6034	2.83615	0	0	0
1000000	1	3	631.159	-36.5983	1.30674	0	0	0
1000000	1	4	538.011	-67.0046	0.139193	0	0	0
1000000	1	5	357.671	-35.4623	1.5	2.83224	-1.65099	0
1000000	2	6	641.489	3.05081	1.5	1.91582	-3.47341	0
1000000	1	7	-118.052	517.294	1.5	0.180397	-2.4573	0
1000000	1	8	144.239	17.4165	1.5	1.66765	1.49898	0
1000000	1	9	367.18	140.581	1.5	-5.42935	-2.97525	0
1000000	1	10	192.073	494.633	1.5	-3.99861	-1.35499	0
1000000	1	11	-189.749	-75.6603	1.5	0.773428	0.788619	0
1000000	1	12	36.7143	-149.179	1.5	-12.2941	-5.51686	0
1000000	2	13	-19.3311	-18.3032	1.5	1.50245	-0.548435	0
2000000	1	1	569.726	-30.6119	1.70697	0	0	0
2000000	1	2	547.063	-22.6034	2.83615	0	0	0
2000000	1	3	631.159	-36.5983	1.30674	0	0	0
2000000	1	4	538.011	-67.0046	0.139193	0	0	0
2000000	1	5	360.504	-37.1133	1.5	2.83224	-1.65099	0
2000000	2	6	643.405	-0.422595	1.5	1.91582	-3.47341	0
2000000	1	7	-117.871	514.836	1.5	0.180397	-2.4573	0
2000000	1	8	145.907	18.9155	1.5	1.66765	1.49898	0
2000000	1	9	361.751	137.606	1.5	-5.42935	-2.97525	0
2000000	1	10	188.075	493.278	1.5	-3.99861	-1.35499	0
2000000	1	11	-188.976	-74.8717	1.5	0.773428	0.788619	0
2000000	1	12	24.4202	-154.696	1.5	-12.2941	-5.51686	0
2000000	2	13	-17.8286	-18.8516	1.5	1.50245	-0.548435	0
3000000	1	1	569.726	-30.6119	1.70697	0	0	0
3000000	1	2	547.063	-22.6034	2.83615	0	0	0
3000000	1	3	631.159	-36.5983	1.30674	0	0	0
3000000	1	4	538.011	-67.0046	0.139193	0	0	0
3000000	1	5	363.336	-38.7643	1.5	2.83224	-1.65099	0
3000000	2	6	645.321	-3.89601	1.5	1.91582	-3.47341	0
3000000	1	7	-117.691	512.379	1.5	0.180397	-2.4573	0
3000000	1	8	147.574	20.4145	1.5	1.66765	1.49898	0
3000000	1	9	356.322	134.631	1.5	-5.42935	-2.97525	0
3000000	1	10	184.076	491.923	1.5	-3.99861	-1.35499	0
3000000	1	11	-188.202	-74.0831	1.5	0.773428	0.788619	0
3000000	1	12	12.1262	-160.213	1.5	-12.2941	-5.51686	0
3000000	2	13	-16.3262	-19.4001	1.5	1.50245	-0.548435	0
4000000	1	1	569.726	-30.6119	1.70697	0	0	0
4000000	1	2	547.063	-22.6034	2.83615	0	0	0
4000000	1	3	631.159	-36.5983	1.30674	0	0	0
4000000	1	4	538.011	-67.0046	0.139193	0	0	0
4000000	1	5	366.168	-40.4153	1.5	2.83224	-1.65099	0
4000000	2	6	647.237	-7.36941	1.5	1.91582	-3.47341	0
4000000	1	7	-117.511	509.922	1.5	0.180397	-2.4573	0
4000000	1	8	149.242	21.9135	1.5	1.66765	1.49898	0
4000000	1	9	350.892	131.655	1.5	-5.42935	-2.97525	0
4000000	1	10	180.077	490.568	1.5	-3.99861	-1.35499	0
4000000	1	11	-187.429	-73.2945	1.5	0.773428	0.788619	0
4000000	1	12	-0.167898	-165.73	1.5	-12.2941	-5.51686	0
4000000	2	13	-14.8237	-19.9485	1.5	1.50245	-0.548435	0
